{
   "abstract" : "Mojolicious Plugin",
   "author" : [
      "Cyrill Novgorodcev."
   ],
   "dynamic_config" : 0,
   "generated_by" : "Minilla/v3.1.3, CPAN::Meta::Converter version 2.150010",
   "license" : [
      "lgpl_3_0"
   ],
   "meta-spec" : {
      "url" : "http://search.cpan.org/perldoc?CPAN::Meta::Spec",
      "version" : "2"
   },
   "name" : "Mojolicious-Plugin-Template-Mustache",
   "no_index" : {
      "directory" : [
         "t",
         "xt",
         "inc",
         "share",
         "eg",
         "examples",
         "author",
         "builder"
      ]
   },
   "prereqs" : {
      "configure" : {
         "requires" : {
            "Module::Build::Tiny" : "0.035"
         }
      },
      "develop" : {
         "requires" : {
            "Test::CPAN::Meta" : "0",
            "Test::MinimumVersion::Fast" : "0.04",
            "Test::PAUSE::Permissions" : "0.04",
            "Test::Pod" : "1.41",
            "Test::Spellunker" : "v0.2.7"
         }
      },
      "runtime" : {
         "requires" : {
            "Mojolicious" : "6.33",
            "Template::Mustache" : "v1.0.2"
         }
      },
      "test" : {
         "requires" : {
            "Software::License::LGPL_3_0" : "0"
         }
      }
   },
   "release_status" : "unstable",
   "resources" : {
      "repository" : {
         "type" : "git",
         "url" : "git://gitlab.com/cynovg/Mojolicious-Plugin-Template-Mustache.git"
      }
   },
   "version" : "0.05",
   "x_authority" : "cpan:CYNOVG",
   "x_contributors" : [
      "Cyrill Novgorodcev <cynovg@cpan.org>"
   ],
   "x_serialization_backend" : "JSON::PP version 2.27400_02",
   "x_static_install" : 1
}
